﻿Enemy Name,Level,Max Health,Health,Max Skills,cur skills,goldgain,estr,esta,eint,eagi,itemdrop,itemdesc,item worth (sell to vendor),expgain,damage,stun,stunduration
a Skeleton,1,15,15,0,0,10,4,5,2,6,none,none,0,20,5,0,0
a Skeleton,1,15,15,0,0,10,5,5,2,6,cracked bulite,a blue gem,5,20,6,0,0
a Skeleton,1,16,16,0,0,10,4,5,2,6,bone chips,chips of bone…,1,20,4,0,0
an Orc,2,17,17,0,0,15,6,6,3,4,Sashed Belt,an orcish belt - this may be for a quest,0,30,5,0,0
an Orc,2,18,18,0,0,15,6,6,3,4,Orc Pickaxe,a rusty pickaxe,3,30,6,0,0
an Orc,2,17,17,0,0,15,6,6,3,4,Rusty Longsword,a good weapon for a warrior +4dmg,10,30,7,0,0
an Orc,2,18,18,0,0,15,6,6,3,4,an Orc head,gross. It's the head of an orc,3,30,6,0,0
a Skeleton Warrior,3,22,22,0,0,25,7,6,3,4,Heavy Chainmail,"Durable armor, though it's heavy -1 agi",30,45,8,0,0
a Skeleton Warrior,3,22,22,0,0,25,7,6,3,4,a skeleton fingerbone,a skeleton fingerbone,2,45,8,0,0
a Skeleton Warrior,3,23,23,0,0,25,7,6,3,4,bone chips,chips of bone…,1,45,8,0,0
Lrodd's skeleton,4,35,35,1,1,55,9,8,5,7,Thex Mallet,An ancient warhammer of magical properties + 2 int + 3 dmg a good weapon for a mage,120,100,12,0,0
Lrodd's skeleton,4,38,38,1,1,55,9,8,5,7,none,,0,100,10,0,0
Lrodd's skeleton,4,32,32,1,1,55,9,8,5,7,none,,0,100,14,0,0
Lrodd's skeleton,4,40,40,1,1,55,9,8,5,7,a Ruby,"a bright red gem, it's worth a lot to some ",50,100,9,0,0